# Blender MTL File: 'fountain3D.blend'
# Material Count: 3

newmtl None
Ns 0
Ka 0.000000 0.000000 0.000000
Kd 0.8 0.8 0.8
Ks 0.8 0.8 0.8
d 1
illum 2
map_Kd C:\Users\Lothkan\Desktop\stone_tex.jpg

newmtl None_NONE
Ns 0
Ka 0.000000 0.000000 0.000000
Kd 0.8 0.8 0.8
Ks 0.8 0.8 0.8
d 1
illum 2

newmtl None_stones.jpg
Ns 0
Ka 0.000000 0.000000 0.000000
Kd 0.8 0.8 0.8
Ks 0.8 0.8 0.8
d 1
illum 2
map_Kd C:\Users\Lothkan\Desktop\stones.jpg
